<svg width="12" height="12" viewBox="0 0 12 12" fill="none" xmlns="http://www.w3.org/2000/svg">
<path d="M9.5999 7.1832H8.7999C8.69382 7.1832 8.59207 7.22535 8.51706 7.30036C8.44205 7.37538 8.3999 7.47712 8.3999 7.5832C8.3999 7.68929 8.44205 7.79103 8.51706 7.86605C8.59207 7.94106 8.69382 7.9832 8.7999 7.9832H9.5999C9.70599 7.9832 9.80773 7.94106 9.88275 7.86605C9.95776 7.79103 9.9999 7.68929 9.9999 7.5832C9.9999 7.47712 9.95776 7.37538 9.88275 7.30036C9.80773 7.22535 9.70599 7.1832 9.5999 7.1832ZM1.5999 0.783203C1.28164 0.783203 0.976418 0.909631 0.751374 1.13468C0.526331 1.35972 0.399902 1.66494 0.399902 1.9832V9.9832C0.399902 10.5136 0.610616 11.0223 0.985689 11.3974C1.36076 11.7725 1.86947 11.9832 2.3999 11.9832H10.3999C10.7182 11.9832 11.0234 11.8568 11.2484 11.6317C11.4735 11.4067 11.5999 11.1015 11.5999 10.7832V3.5832C11.6 3.33494 11.5232 3.09275 11.3799 2.89001C11.2366 2.68727 11.034 2.53396 10.7999 2.4512V1.9832C10.7999 1.66494 10.6735 1.35972 10.4484 1.13468C10.2234 0.909631 9.91816 0.783203 9.5999 0.783203H1.5999ZM1.1999 9.9832V3.1152C1.3247 3.1592 1.4599 3.1832 1.5999 3.1832H10.3999C10.506 3.1832 10.6077 3.22535 10.6827 3.30036C10.7578 3.37538 10.7999 3.47712 10.7999 3.5832V10.7832C10.7999 10.8893 10.7578 10.991 10.6827 11.066C10.6077 11.1411 10.506 11.1832 10.3999 11.1832H2.3999C2.08164 11.1832 1.77642 11.0568 1.55137 10.8317C1.32633 10.6067 1.1999 10.3015 1.1999 9.9832ZM1.5999 1.5832H9.5999C9.70599 1.5832 9.80773 1.62535 9.88275 1.70036C9.95776 1.77538 9.9999 1.87712 9.9999 1.9832V2.3832H1.5999C1.49382 2.3832 1.39207 2.34106 1.31706 2.26605C1.24205 2.19103 1.1999 2.08929 1.1999 1.9832C1.1999 1.87712 1.24205 1.77538 1.31706 1.70036C1.39207 1.62535 1.49382 1.5832 1.5999 1.5832Z" fill="white"/>
</svg>
